-------- Addition elem --------
HashMap.put(e): 2043 ms
AssociativeArray.add(e): 2005 ms


-------- Removing elem --------
HashMap.remove(e): 2264 ms
AssociativeArray.remove(e): 2323 ms

-------- Getting elem --------
HashMap.get(e): 1924 ms
AssociativeArray.get(e): 2290 ms
